…
``` r
gapminder %>% 
  arrange(desc(pop)) 
```

    ## # A tibble: 1,704 x 6
    ##    country continent  year lifeExp        pop gdpPercap
    ##    <fct>   <fct>     <int>   <dbl>      <int>     <dbl>
    ##  1 China   Asia       2007    73.0 1318683096     4959.
    ##  2 China   Asia       2002    72.0 1280400000     3119.
    ##  3 China   Asia       1997    70.4 1230075000     2289.
    ##  4 China   Asia       1992    68.7 1164970000     1656.
    ##  5 India   Asia       2007    64.7 1110396331     2452.
    ##  6 China   Asia       1987    67.3 1084035000     1379.
    ##  7 India   Asia       2002    62.9 1034172547     1747.
    ##  8 China   Asia       1982    65.5 1000281000      962.
    ##  9 India   Asia       1997    61.8  959000000     1459.
    ## 10 China   Asia       1977    64.0  943455000      741.
    ## # ... with 1,694 more rows
…
